<svg viewBox="0 0 384 19" version="1.1" xmlns="http://www.w3.org/2000/svg" xmlns:xlink="http://www.w3.org/1999/xlink">
    <g id="UI" stroke="none" stroke-width="1" fill="none" fill-rule="evenodd">
        <g id="UI-Kit" transform="translate(-1366.000000, -2590.000000)" fill="#FFFFFF">
            <g id="Популярное" transform="translate(1366.000000, 2161.000000)">
                <polygon id="Rectangle-2" points="2.27373675e-13 429.51852 384 429.51852 384 448 372 442 360 448 348 442 336 448 324 442 312 448 300 442 288 448 276 442 264 448 252 442 240 448 228 442 216 448 204 442 192 448 180 442 168 448 156 442 144 448 132 442 120 448 108 442 96 448 84 442 72 448 60 442 48 448 36 442 24 448 12 442 0 448"></polygon>
            </g>
        </g>
    </g>
</svg>