
<svg width="24px" height="24px" viewBox="0 0 24 24" version="1.1" xmlns="http://www.w3.org/2000/svg" xmlns:xlink="http://www.w3.org/1999/xlink">
    <defs>
        <path d="M3.91035867,5.3725 L22.4325,5.3725 C22.9825,5.3725 23.4325,5.8125 23.4325,6.3725 C23.4325,6.9225 22.9825,7.3725 22.4325,7.3725 L3.9125,7.3725 L7.5725,11.0325 C7.9625,11.4225 7.9625,12.0625 7.5725,12.4525 C7.3725,12.6425 7.1225,12.7425 6.8625,12.7425 C6.6125,12.7425 6.3525,12.6425 6.1625,12.4525 L0.7925,7.0825 C0.4025,6.6925 0.4025,6.0525 0.7925,5.6625 L6.1625,0.2925 C6.5525,-0.0975 7.1825,-0.0975 7.5725,0.2925 C7.9625,0.6825 7.9625,1.3125 7.5725,1.7025 L3.91035867,5.3725 Z" id="path-1"></path>
        <rect id="path-3" x="0" y="0" width="24" height="24"></rect>
    </defs>
    <g id="Symbols" stroke="none" stroke-width="1" fill="none" fill-rule="evenodd">
        <g id="icon/be">
            <g id="icon/default" transform="translate(0.000000, 6.000000)">
                <mask id="mask-2" fill="white">
                    <use xlink:href="#path-1"></use>
                </mask>
                <use id="Combined-Shape" fill="#F2EEE8" xlink:href="#path-1"></use>
                <g id="color/grey" mask="url(#mask-2)">
                    <g transform="translate(0.000000, -6.000000)" id="color">
                        <g>
                            <use fill="#181818" xlink:href="#path-3"></use>
                            <!-- <use fill="#181818" xlink:href="#path-3"></use> -->
                        </g>
                    </g>
                </g>
            </g>
        </g>
    </g>
</svg>