<?xml version="1.0" encoding="UTF-8"?>
<svg width="172px" height="36px" viewBox="0 0 172 36" version="1.1" xmlns="http://www.w3.org/2000/svg" xmlns:xlink="http://www.w3.org/1999/xlink">
    <!-- Generator: sketchtool 51.3 (57544) - http://www.bohemiancoding.com/sketch -->
    <title>69F0A077-73D0-455F-B8F3-DBF73CEE1864</title>
    <desc>Created with sketchtool.</desc>
    <defs></defs>
    <g id="Symbols" stroke="none" stroke-width="1" fill="none" fill-rule="evenodd">
        <g id="logo/black" transform="translate(-6.000000, 1.000000)">
            <g id="logo" transform="translate(6.000000, -1.000000)">
                <path d="M5.66007905,26 L5.66007905,8.99386503 L0,8.99386503 L0,5 L16,5 L16,8.99386503 L10.3399209,8.99386503 L10.3399209,26 L5.66007905,26 Z M20.8638498,26 C20.1189321,26 19.4452299,25.8746807 18.842723,25.6240385 C18.2402161,25.3733962 17.7308315,25.0246817 17.314554,24.5778846 C16.8982765,24.1310875 16.5751185,23.6134645 16.3450704,23.025 C16.1150223,22.4365355 16,21.7935932 16,21.0961538 C16,19.3961453 16.7229975,18.0666715 18.1690141,17.1076923 C19.6150307,16.1487132 21.9483407,15.5057709 25.1690141,15.1788462 C25.1251954,14.4596118 24.9115825,13.8875021 24.528169,13.4625 C24.1447555,13.0374979 23.5039169,12.825 22.6056338,12.825 C21.9045348,12.825 21.2089236,12.9557679 20.5187793,13.2173077 C19.828635,13.4788475 19.0892058,13.8384593 18.3004695,14.2961538 L16.5586854,11.125 C17.6103339,10.4929456 18.7112619,9.98077119 19.8615023,9.58846154 C21.0117428,9.19615188 22.2331704,9 23.5258216,9 C25.6291185,9 27.2339538,9.59390432 28.3403756,10.7817308 C29.4467974,11.9695572 30,13.8166541 30,16.3230769 L30,25.6076923 L26.056338,25.6076923 L25.7276995,23.9403846 L25.5962441,23.9403846 C24.8951452,24.5506441 24.1611932,25.0464725 23.3943662,25.4278846 C22.6275392,25.8092968 21.7840422,26 20.8638498,26 Z M22.6521739,22 C23.1352681,22 23.5507229,21.886306 23.8985507,21.6589147 C24.2463786,21.4315234 24.6135246,21.1111132 25,20.6976744 L25,18 C23.4927461,18.2273913 22.4492783,18.5581374 21.8695652,18.9922481 C21.2898522,19.4263588 21,19.9431495 21,20.5426357 C21,21.0387622 21.149757,21.4056836 21.4492754,21.6434109 C21.7487938,21.8811381 22.1497559,22 22.6521739,22 Z M34,25 L34,9.37795276 L37.9344262,9.37795276 L38.2622951,11.3937008 L38.3934426,11.3937008 C39.0710416,10.7427789 39.7923459,10.1811047 40.557377,9.70866142 C41.3224082,9.23621811 42.2404318,9 43.3114754,9 C44.4699511,9 45.404368,9.22571953 46.1147541,9.67716535 C46.8251402,10.1286112 47.3879761,10.774274 47.8032787,11.6141732 C48.5245938,10.9002589 49.284149,10.2860918 50.0819672,9.77165354 C50.8797854,9.25721528 51.8251311,9 52.9180328,9 C54.6666754,9 55.9508156,9.56167417 56.7704918,10.6850394 C57.590168,11.8084046 58,13.3464469 58,15.2992126 L58,25 L53.1803279,25 L53.1803279,15.8976378 C53.1803279,14.7637739 53.0218595,13.9868787 52.704918,13.5669291 C52.3879766,13.1469795 51.8797849,12.9370079 51.1803279,12.9370079 C50.3715807,12.9370079 49.4426282,13.4409398 48.3934426,14.4488189 L48.3934426,25 L43.5737705,25 L43.5737705,15.8976378 C43.5737705,14.7637739 43.4153021,13.9868787 43.0983607,13.5669291 C42.7814192,13.1469795 42.2732275,12.9370079 41.5737705,12.9370079 C40.7431652,12.9370079 39.8251416,13.4409398 38.8196721,14.4488189 L38.8196721,25 L34,25 Z M62,26 L62,5 L69.2080808,5 C70.3070762,5 71.3252478,5.08052067 72.2626263,5.24156442 C73.2000047,5.40260817 74.0188517,5.68711452 74.7191919,6.09509202 C75.4195321,6.50306952 75.9690216,7.03987397 76.3676768,7.70552147 C76.766332,8.37116897 76.9656566,9.20858391 76.9656566,10.2177914 C76.9656566,10.6901864 76.9010107,11.1625743 76.7717172,11.6349693 C76.6424236,12.1073643 76.4592604,12.547544 76.2222222,12.9555215 C75.985184,13.363499 75.699665,13.728526 75.3656566,14.0506135 C75.0316482,14.372701 74.6491604,14.608895 74.2181818,14.7592025 L74.2181818,14.8880368 C74.7569051,15.0168718 75.252523,15.2154895 75.7050505,15.4838957 C76.157578,15.752302 76.5562272,16.0904888 76.9010101,16.4984663 C77.245793,16.9064438 77.5151505,17.3841997 77.7090909,17.9317485 C77.9030313,18.4792972 78,19.1073584 78,19.8159509 C78,20.8895759 77.7899011,21.8128796 77.369697,22.5858896 C76.9494928,23.3588996 76.3676805,23.9976969 75.6242424,24.5023006 C74.8808044,25.0069044 74.013473,25.3826675 73.0222222,25.6296012 C72.0309715,25.876535 70.9643155,26 69.8222222,26 L62,26 Z M67,13 L69.4069767,13 C70.662797,13 71.5755785,12.7619071 72.1453488,12.2857143 C72.7151191,11.8095214 73,11.1746071 73,10.3809524 C73,9.51927007 72.7093052,8.90703129 72.127907,8.54421769 C71.5465087,8.18140408 70.6511688,8 69.4418605,8 L67,8 L67,13 Z M67,22 L69.8480392,22 C72.6160269,22 74,21.1269929 74,19.3809524 C74,18.5277735 73.6568662,17.9176606 72.9705882,17.5505952 C72.2843103,17.1835299 71.243471,17 69.8480392,17 L67,17 L67,22 Z M84.8638498,26 C84.1189321,26 83.4452299,25.8746807 82.842723,25.6240385 C82.2402161,25.3733962 81.7308315,25.0246817 81.314554,24.5778846 C80.8982765,24.1310875 80.5751185,23.6134645 80.3450704,23.025 C80.1150223,22.4365355 80,21.7935932 80,21.0961538 C80,19.3961453 80.7229975,18.0666715 82.1690141,17.1076923 C83.6150307,16.1487132 85.9483407,15.5057709 89.1690141,15.1788462 C89.1251954,14.4596118 88.9115825,13.8875021 88.528169,13.4625 C88.1447555,13.0374979 87.5039169,12.825 86.6056338,12.825 C85.9045348,12.825 85.2089236,12.9557679 84.5187793,13.2173077 C83.828635,13.4788475 83.0892058,13.8384593 82.3004695,14.2961538 L80.5586854,11.125 C81.6103339,10.4929456 82.7112619,9.98077119 83.8615023,9.58846154 C85.0117428,9.19615188 86.2331704,9 87.5258216,9 C89.6291185,9 91.2339538,9.59390432 92.3403756,10.7817308 C93.4467974,11.9695572 94,13.8166541 94,16.3230769 L94,25.6076923 L90.056338,25.6076923 L89.7276995,23.9403846 L89.5962441,23.9403846 C88.8951452,24.5506441 88.1611932,25.0464725 87.3943662,25.4278846 C86.6275392,25.8092968 85.7840422,26 84.8638498,26 Z M86.6521739,22 C87.1352681,22 87.5507229,21.886306 87.8985507,21.6589147 C88.2463786,21.4315234 88.6135246,21.1111132 89,20.6976744 L89,18 C87.4927461,18.2273913 86.4492783,18.5581374 85.8695652,18.9922481 C85.2898522,19.4263588 85,19.9431495 85,20.5426357 C85,21.0387622 85.149757,21.4056836 85.4492754,21.6434109 C85.7487938,21.8811381 86.1497559,22 86.6521739,22 Z M98,25 L98,9.37795276 L101.758389,9.37795276 L102.071588,11.3622047 L102.196868,11.3622047 C102.865029,10.7322803 103.59582,10.1811047 104.389262,9.70866142 C105.182703,9.23621811 106.111851,9 107.176734,9 C108.868017,9 110.094702,9.55642488 110.856823,10.6692913 C111.618945,11.7821578 112,13.3254494 112,15.2992126 L112,25 L107.395973,25 L107.395973,15.8976378 C107.395973,14.7637739 107.244595,13.9868787 106.941834,13.5669291 C106.639074,13.1469795 106.15362,12.9370079 105.485459,12.9370079 C104.900817,12.9370079 104.399704,13.0682402 103.982103,13.3307087 C103.564502,13.5931772 103.105148,13.9658769 102.604027,14.4488189 L102.604027,25 L98,25 Z M117,26 L117,3 L121.496855,3 L121.496855,16.189729 L121.622642,16.189729 L126.559748,9.72610556 L131.591195,9.72610556 L126.119497,16.4194009 L132,26 L127,26 L123.477987,19.6676177 L121.496855,21.9971469 L121.496855,26 L117,26 Z" id="TamBank" fill="#0A090C"></path>
                <path d="M153.443121,28.051368 C152.829121,28.447368 152.129121,28.653368 151.415121,28.653368 C151.151121,28.653368 150.884121,28.625368 150.620121,28.569368 C149.641121,28.358368 148.802121,27.779368 148.258121,26.938368 C147.694121,26.067368 147.517121,24.989368 147.772121,23.984368 L150.217121,14.300368 L148.868121,8.95836801 L148.130121,8.48036801 C147.430121,8.02836801 146.574121,7.88736801 145.766121,8.09136801 C144.160121,8.49736801 143.186121,10.128368 143.592121,11.734368 L146.085121,21.602368 L143.592121,31.469368 C143.388121,32.277368 143.529121,33.133368 143.982121,33.833368 C144.881121,35.224368 146.738121,35.623368 148.130121,34.723368 L164.528121,24.121368 C164.884121,23.891368 165.188121,23.587368 165.418121,23.231368 C166.025121,22.293368 166.029121,21.149368 165.549121,20.224368 L153.443121,28.051368 Z" id="Fill-1" fill="#CC003D"></path>
                <g id="Group-3" transform="translate(143.000000, 8.000000)"></g>
                <path d="M170.027767,16.1215636 L153.629565,26.7238194 C152.238197,27.6234085 150.381009,27.2247426 149.48142,25.8333744 C149.029081,25.1337542 148.88804,24.2775409 149.092077,23.4697982 L151.584629,13.6022685 L149.092077,3.73473889 C148.686299,2.12834226 149.659592,0.497152358 151.265989,0.0913742818 C152.073732,-0.112662676 152.929945,0.0283782407 153.629565,0.480717634 L170.027767,11.0829735 C171.419135,11.9825625 171.817801,13.8397503 170.918212,15.2311186 C170.687736,15.587588 170.384236,15.8910883 170.027767,16.1215636 Z" id="Triangle" fill="#004385"></path>
            </g>
        </g>
    </g>
</svg>